﻿[
  {
    "id": "01003bee-d622-40e8-8d19-f2e14ae10001",
    "type": "patient",
    "name": "Boris Petrov",
    "avatar": "https://s3.amazonaws.com/uifaces/faces/twitter/ahmetalpbalkan/128.jpg"
  },
  {
    "id": "24ab23ae-1f90-4508-b475-d27f00c860d4",
    "type": "patient",
    "name": "Hector Rodriges",
    "avatar": "https://s3.amazonaws.com/uifaces/faces/twitter/abovefunction/128.jpg"
  },
  {
    "id": "7bc1c6fb-8c15-40d7-845d-bef421d67bc0",
    "type": "patient",
    "name": "Lew Cormier",
    "avatar": "https://s3.amazonaws.com/uifaces/faces/twitter/gauravjassal/128.jpg"
  },
  {
    "id": "5c982505-bd03-4878-8839-b4bc92d0da9e",
    "type": "patient",
    "name": "Reuben Ryan",
    "avatar": "https://s3.amazonaws.com/uifaces/faces/twitter/lu4sh1i/128.jpg"
  },
  {
    "id": "b5ecdc18-4a93-42b0-8195-69d88862c132",
    "type": "patient",
    "name": "Devante Marvin",
    "avatar": "https://s3.amazonaws.com/uifaces/faces/twitter/ashocka18/128.jpg"
  },
  {
    "id": "a2e21dac-4340-4dd3-8b41-d850ce8a7adf",
    "type": "patient",
    "name": "Ilene Ortiz",
    "avatar": "https://s3.amazonaws.com/uifaces/faces/twitter/m4rio/128.jpg"
  },
  {
    "id": "c11db031-da47-45e0-8749-27ff5f87ad53",
    "type": "patient",
    "name": "Miss Sophia Larson",
    "avatar": "https://s3.amazonaws.com/uifaces/faces/twitter/craighenneberry/128.jpg"
  },
  {
    "id": "69d04309-aca7-45fa-8873-6d4923a35493",
    "type": "patient",
    "name": "Elfrieda Moore DDS",
    "avatar": "https://s3.amazonaws.com/uifaces/faces/twitter/popey/128.jpg"
  },
  {
    "id": "af34e7de-c81a-41d1-8c6d-2bf652be76e7",
    "type": "patient",
    "name": "Liana Tillman",
    "avatar": "https://s3.amazonaws.com/uifaces/faces/twitter/albertaugustin/128.jpg"
  },
  {
    "id": "14493ff3-e890-453f-86d5-027850154c65",
    "type": "patient",
    "name": "Antwon Kiehn",
    "avatar": "https://s3.amazonaws.com/uifaces/faces/twitter/djsherman/128.jpg"
  },
  {
    "id": "62c3047f-c669-4aca-8a65-d12feb8c019c",
    "type": "patient",
    "name": "Marc Raynor",
    "avatar": "https://s3.amazonaws.com/uifaces/faces/twitter/91bilal/128.jpg"
  },
  {
    "id": "f2bc7718-7623-4505-8431-5fa57da3a946",
    "type": "patient",
    "name": "Akeem Okuneva",
    "avatar": "https://s3.amazonaws.com/uifaces/faces/twitter/pierrestoffe/128.jpg"
  }
]